<svg id="Group_104" data-name="Group 104" xmlns="http://www.w3.org/2000/svg" width="53.95" height="45" viewBox="0 0 53.95 45">
  <path id="Path_131" data-name="Path 131" d="M52.9,51.518,27.5,42.558a1.58,1.58,0,0,0-1.052,0L1.055,51.518a1.581,1.581,0,0,0,0,2.98l25.394,9.028a1.58,1.58,0,0,0,1.059,0L52.9,54.5a1.581,1.581,0,0,0,0-2.98Z" transform="translate(0 -42.468)" fill="#196fd2"/>
  <path id="Path_132" data-name="Path 132" d="M435.6,211.521V197.734l-3.161,1.124v12.663a3.174,3.174,0,0,0,0,5.5v7.768a1.581,1.581,0,1,0,3.161,0v-7.767a3.174,3.174,0,0,0,0-5.5Z" transform="translate(-385.449 -181.374)" fill="#196fd2"/>
  <path id="Path_133" data-name="Path 133" d="M121.308,227.761a4.73,4.73,0,0,1-1.588-.274l-14.276-5.075v6.955c0,1.7,1.775,3.141,5.276,4.277a37.261,37.261,0,0,0,21.176,0c3.5-1.136,5.276-2.575,5.276-4.277v-6.955L122.9,227.487A4.731,4.731,0,0,1,121.308,227.761Z" transform="translate(-94.333 -203.451)" fill="#196fd2"/>
</svg>
