<svg id="Group_105" data-name="Group 105" xmlns="http://www.w3.org/2000/svg" width="29.194" height="45.415" viewBox="0 0 29.194 45.415">
  <path id="Path_134" data-name="Path 134" d="M109.119,13.11a14.6,14.6,0,1,0-22.658,13.6,7.324,7.324,0,0,1,3.268,6.077v.457h4.055V27.793c-3.38-.4-5.677-3.262-5.677-7.247,0-3.7,5.2-12.413,5.794-13.394a.842.842,0,0,1,1.387,0c.594.981,5.794,9.693,5.794,13.394,0,3.985-2.3,6.851-5.677,7.247v5.449H99.46v-.455a7.38,7.38,0,0,1,3.3-6.1A14.626,14.626,0,0,0,109.119,13.11Zm-13.189-9.8A.811.811,0,0,1,96.111,1.7,12.975,12.975,0,0,1,107.5,13.269a.811.811,0,0,1-.73.887h-.081a.812.812,0,0,1-.806-.73A11.342,11.342,0,0,0,95.929,3.313Z" transform="translate(-79.998 0.008)" fill="#196fd2"/>
  <path id="Path_135" data-name="Path 135" d="M159.986,344.812a.811.811,0,0,0,.811.811H172.15a.811.811,0,0,0,0-1.622H160.8A.811.811,0,0,0,159.986,344.812Z" transform="translate(-151.878 -309.128)" fill="#196fd2"/>
  <path id="Path_136" data-name="Path 136" d="M172.961,408.811a.811.811,0,0,0-.811-.811H160.8a.811.811,0,1,0,0,1.622H172.15A.811.811,0,0,0,172.961,408.811Z" transform="translate(-151.878 -366.64)" fill="#196fd2"/>
  <path id="Path_137" data-name="Path 137" d="M183.541,103.517l-1.878.626v3.406c2.79-.424,4.055-3.024,4.055-5.61,0-2.4-3.06-8.232-4.866-11.375-1.806,3.143-4.866,8.971-4.866,11.375,0,2.586,1.265,5.19,4.055,5.61v-3.406l-1.878-.626a.812.812,0,1,1,.512-1.541l1.366.457v-2.345l-1.878-.626a.812.812,0,1,1,.512-1.541l1.366.457v-2.93a.811.811,0,1,1,1.622,0v2.93l1.366-.455a.812.812,0,1,1,.512,1.541l-1.878.623v2.345l1.366-.455a.812.812,0,1,1,.512,1.541Z" transform="translate(-166.256 -81.383)" fill="#196fd2"/>
  <path id="Path_138" data-name="Path 138" d="M172.15,376H160.8a.811.811,0,1,0,0,1.622H172.15a.811.811,0,0,0,0-1.622Z" transform="translate(-151.878 -337.885)" fill="#196fd2"/>
  <path id="Path_139" data-name="Path 139" d="M199.985,440a.811.811,0,0,0,.811.811h3.244a.811.811,0,0,0,.811-.811Z" transform="translate(-187.822 -395.395)" fill="#196fd2"/>
</svg>
