<svg id="Group_137" data-name="Group 137" xmlns="http://www.w3.org/2000/svg" width="43.049" height="43.049" viewBox="0 0 43.049 43.049">
  <g id="Group_126" data-name="Group 126" transform="translate(16.298 0.549)">
    <g id="Group_125" data-name="Group 125" transform="translate(0)">
      <circle id="Ellipse_7" data-name="Ellipse 7" cx="5" cy="5" r="5" fill="#196fd2"/>
    </g>
  </g>
  <g id="Group_128" data-name="Group 128" transform="translate(13.453 13.453)">
    <g id="Group_127" data-name="Group 127">
      <path id="Path_166" data-name="Path 166" d="M176.133,171.94l-1.221-9.514a2.68,2.68,0,0,0-2.674-2.421h-1.474a1.355,1.355,0,0,0-.952.393l-1.738,1.738-1.738-1.738a1.355,1.355,0,0,0-.952-.393H163.91a2.674,2.674,0,0,0-2.674,2.387l-1.224,9.551a1.348,1.348,0,0,0,1.335,1.515H162.8l1.125,13.722A2.681,2.681,0,0,0,166.6,189.6h2.946a2.69,2.69,0,0,0,2.68-2.446l1.122-13.7h1.45a1.342,1.342,0,0,0,1.009-.457A1.325,1.325,0,0,0,176.133,171.94Z" transform="translate(-160 -160.005)" fill="#196fd2"/>
    </g>
  </g>
  <g id="Group_130" data-name="Group 130" transform="translate(29.298 0.549)">
    <g id="Group_129" data-name="Group 129" transform="translate(0)">
      <ellipse id="Ellipse_8" data-name="Ellipse 8" cx="5.5" cy="5" rx="5.5" ry="5" fill="#196fd2"/>
    </g>
  </g>
  <g id="Group_132" data-name="Group 132" transform="translate(2.69 0)">
    <g id="Group_131" data-name="Group 131">
      <path id="Path_167" data-name="Path 167" d="M37.38,0a5.381,5.381,0,1,0,5.381,5.381A5.386,5.386,0,0,0,37.38,0Z" transform="translate(-31.999 -0.005)" fill="#196fd2"/>
    </g>
  </g>
  <g id="Group_134" data-name="Group 134" transform="translate(29.938 13.453)">
    <g id="Group_133" data-name="Group 133">
      <path id="Path_168" data-name="Path 168" d="M369.163,171.94l-1.221-9.511a2.678,2.678,0,0,0-2.674-2.424h-1.474a1.355,1.355,0,0,0-.952.393l-1.738,1.738-1.738-1.738a1.353,1.353,0,0,0-.95-.393H356.94a2.564,2.564,0,0,0-.476.089,5.235,5.235,0,0,1,.7,2.023l1.219,9.481a4.026,4.026,0,0,1-.985,3.191,3.9,3.9,0,0,1-1.335.947l.893,8.752a2.681,2.681,0,0,0,2.677,2.421h2.946a2.689,2.689,0,0,0,2.68-2.446l1.119-11.007h1.45a1.342,1.342,0,0,0,1.009-.457A1.325,1.325,0,0,0,369.163,171.94Z" transform="translate(-356.063 -160.005)" fill="#196fd2"/>
    </g>
  </g>
  <g id="Group_136" data-name="Group 136" transform="translate(0 13.453)">
    <g id="Group_135" data-name="Group 135">
      <path id="Path_169" data-name="Path 169" d="M11.768,174.776a4.03,4.03,0,0,1-.974-3.172l1.224-9.554a4.974,4.974,0,0,1,.67-1.959,2.531,2.531,0,0,0-.452-.086H10.762a1.355,1.355,0,0,0-.952.393l-1.738,1.738L6.333,160.4a1.353,1.353,0,0,0-.95-.393H3.909a2.674,2.674,0,0,0-2.674,2.387L.01,171.943a1.348,1.348,0,0,0,1.335,1.515H2.8l1.125,11.031A2.681,2.681,0,0,0,6.6,186.91H9.545a2.689,2.689,0,0,0,2.68-2.446l.893-8.731A4.035,4.035,0,0,1,11.768,174.776Z" transform="translate(0.001 -160.005)" fill="#196fd2"/>
    </g>
  </g>
</svg>
